/home/brunoboassi/workspace/ConectoresKafka/src/main/java/br/com/itau/ConectoresKafka/AppTransaction.java
/home/brunoboassi/workspace/ConectoresKafka/src/main/java/br/com/itau/kafka/produtor/normal/ProdutorFactory.java
/home/brunoboassi/workspace/ConectoresKafka/src/main/java/br/com/itau/ConectoresKafka/AppConsumidor.java
/home/brunoboassi/workspace/ConectoresKafka/src/main/java/br/com/itau/kafka/transacional/TransactionHandler.java
/home/brunoboassi/workspace/ConectoresKafka/src/main/java/br/com/itau/kafka/transaction/TransacionalHandlerImplAbort.java
/home/brunoboassi/workspace/ConectoresKafka/src/main/java/br/com/itau/kafka/consumidor/normal/ConsumidorHandlerImpl.java
/home/brunoboassi/workspace/ConectoresKafka/src/main/java/br/com/itau/testesHolder/AppHolder.java
/home/brunoboassi/workspace/ConectoresKafka/src/main/java/br/com/itau/testesHolder/HolderApplication.java
/home/brunoboassi/workspace/ConectoresKafka/src/main/java/br/com/itau/kafka/produtor/ProdutorWithKey.java
/home/brunoboassi/workspace/ConectoresKafka/src/main/java/br/com/itau/testesHolder/TransacionalRespostaHandlerImpl.java
/home/brunoboassi/workspace/ConectoresKafka/src/main/java/br/com/itau/kafka/transacional/Transaction.java
/home/brunoboassi/workspace/ConectoresKafka/src/main/java/br/com/itau/kafka/produtor/withkey/ProdutorFactoryWithKey.java
/home/brunoboassi/workspace/ConectoresKafka/src/main/java/br/com/itau/kafka/consumidor/ConsumidorHandler.java
/home/brunoboassi/workspace/ConectoresKafka/src/main/java/br/com/itau/kafka/transaction/TransacionalHandlerImpl.java
/home/brunoboassi/workspace/ConectoresKafka/src/main/java/br/com/itau/kafka/consumidor/Consumidor.java
/home/brunoboassi/workspace/ConectoresKafka/src/main/java/br/com/itau/testesHolder/TransacionalHolderHandlerImpl.java
/home/brunoboassi/workspace/ConectoresKafka/src/main/java/br/com/itau/kafka/produtor/normal/ProdutorImpl.java
/home/brunoboassi/workspace/ConectoresKafka/src/main/java/br/com/itau/testesHolder/EntidadeHolder.java
/home/brunoboassi/workspace/ConectoresKafka/src/main/java/br/com/itau/kafka/consumidor/normal/ConsumidorImpl.java
/home/brunoboassi/workspace/ConectoresKafka/src/main/java/br/com/itau/kafka/produtor/withkey/ProdutorImplWithKey.java
/home/brunoboassi/workspace/ConectoresKafka/src/main/java/br/com/itau/testesHolder/TransacionalHolderHandlerImplAbort.java
/home/brunoboassi/workspace/ConectoresKafka/src/main/java/br/com/itau/kafka/produtor/Produtor.java
/home/brunoboassi/workspace/ConectoresKafka/src/main/java/br/com/itau/kafka/transaction/TransacionalImpl.java
/home/brunoboassi/workspace/ConectoresKafka/src/main/java/br/com/itau/ConectoresKafka/Conta.java
/home/brunoboassi/workspace/ConectoresKafka/src/main/java/br/com/itau/kafka/consumidor/normal/ConsumidorFactory.java
/home/brunoboassi/workspace/ConectoresKafka/src/main/java/br/com/itau/kafka/consumidor/comtest/ConsumidorFactoryTeste.java
/home/brunoboassi/workspace/ConectoresKafka/src/main/java/br/com/itau/ConectoresKafka/AppProdutorWithKey.java
/home/brunoboassi/workspace/ConectoresKafka/src/main/java/br/com/itau/ConectoresKafka/AppProdutor.java
/home/brunoboassi/workspace/ConectoresKafka/src/main/java/br/com/itau/kafka/produtor/comtest/ProdutorFactoryTeste.java
/home/brunoboassi/workspace/ConectoresKafka/src/main/java/br/com/itau/kafka/transaction/TransacionalFactory.java
/home/brunoboassi/workspace/ConectoresKafka/src/main/java/br/com/itau/ConectoresKafka/AppConsumidorTeste.java
/home/brunoboassi/workspace/ConectoresKafka/src/main/java/br/com/itau/kafka/produtor/comtest/ProdutorImplTeste.java
/home/brunoboassi/workspace/ConectoresKafka/src/main/java/br/com/itau/testesHolder/TransacionalHolder.java
/home/brunoboassi/workspace/ConectoresKafka/src/main/java/br/com/itau/ConectoresKafka/AppLogging.java
/home/brunoboassi/workspace/ConectoresKafka/src/main/java/br/com/itau/ConectoresKafka/AppProdutorTeste.java
/home/brunoboassi/workspace/ConectoresKafka/src/main/java/br/com/itau/ConectoresKafka/Lancamento.java
/home/brunoboassi/workspace/ConectoresKafka/src/main/java/br/com/itau/testesHolder/TransacionalRespostaHandlerImplAbort.java
/home/brunoboassi/workspace/ConectoresKafka/src/main/java/br/com/itau/kafka/consumidor/comtest/ConsumidorImplTeste.java
